<?xml version="1.0" encoding="UTF-8" standalone="no"?>
<svg width="922px" height="768px" viewBox="0 0 922 768" version="1.1" xmlns="http://www.w3.org/2000/svg" xmlns:xlink="http://www.w3.org/1999/xlink">
    <!-- Generator: Sketch 39.1 (31720) - http://www.bohemiancoding.com/sketch -->
    <title>LEFT#16D3EA17-9A40-4630-863F-9F596ADD12A9#B5643222-7EED-4D81-BFED-7EAD7FE7CB50</title>
    <desc>Created with Sketch.</desc>
    <defs></defs>
    <g id="Page-1" stroke="none" stroke-width="1" fill="none" fill-rule="evenodd" fill-opacity="0.6" opacity="0.320471082">
        <g id="天气_雾" fill="#FFFFFF">
            <g id="背景" transform="translate(-422.000000, -228.000000)">
                <g id="Group-4" transform="translate(0.000000, 228.000000)">
                    <path d="M555.00159,652.613544 L555.00159,652.424051 L550.70649,652.424051 L550.146259,652.424051 L549.586029,652.424051 L102.708908,652.424051 L102.708908,768.204212 L547.251736,768.204212 C548.278825,768.298959 549.212542,768.298959 550.239631,768.298959 C551.26672,768.298959 552.200438,768.298959 553.227527,768.204212 L555.094961,768.204212 L555.094961,768.01472 C584.413686,765.551312 607.383133,740.632996 607.383133,710.314132 C607.289761,679.995268 584.320314,655.076952 555.00159,652.613544 L555.00159,652.613544 Z M1097.77148,407.314986 L1251.27461,407.314986 C1252.76856,407.409733 1254.35588,407.409733 1255.84983,407.409733 C1304.58987,407.409733 1344.08612,367.331985 1344.08612,317.874338 C1344.08612,269.269409 1305.89708,229.665394 1258.27749,228.338943 L1254.07577,228.338943 L795.247062,228.338943 C765.648223,227.201986 741.931802,202.473163 741.931802,172.154299 C741.931802,141.835435 765.648223,117.106612 795.247062,116.064401 L950.991116,115.780161 C985.538657,115.874908 1011.12251,89.9143806 1011.12251,57.8900806 C1011.12251,26.4342594 986.379003,0.852718045 955.566331,0 L419.239088,0 L419.239088,110.379614 L0,110.379614 L0,226.254521 L419.239088,226.254521 L419.239088,228.43369 C374.887514,233.644744 340.339972,271.732817 340.339972,317.969084 C340.339972,364.205352 374.887514,402.293425 419.239088,407.030747 L424.001046,407.409733 C425.494994,407.504479 427.082313,407.504479 428.576261,407.504479 C430.070209,407.504479 431.657528,407.504479 433.151476,407.409733 L650.800989,407.409733 C652.948539,407.125493 655.002717,407.030747 657.243639,407.030747 C687.776196,407.030747 712.613077,432.138556 712.613077,463.215392 C712.613077,494.197481 687.869568,519.30529 657.430382,519.400036 L613.545667,519.873768 C581.239047,519.873768 555.655192,545.834296 555.655192,577.858595 C555.655192,609.882895 581.239047,635.843423 612.798693,635.843423 C613.825782,635.843423 1201.41411,635.748676 1201.41411,635.748676 C1235.96165,635.843423 1261.5455,609.882895 1261.5455,577.858595 C1261.5455,546.402774 1236.80199,520.821233 1205.98932,519.968515 L1089.55477,519.968515 C1059.95593,518.357825 1036.23951,493.629002 1036.23951,463.310138 C1036.05277,432.138556 1060.79628,406.936001 1091.32883,406.936001 C1093.47638,406.936001 1095.62393,407.030747 1097.77148,407.314986 Z" id="Shape"></path>
                </g>
            </g>
        </g>
    </g>
</svg>