<?xml version="1.0" encoding="UTF-8" standalone="no"?>
<svg width="1848px" height="1203px" viewBox="0 0 1848 1203" version="1.1" xmlns="http://www.w3.org/2000/svg" xmlns:xlink="http://www.w3.org/1999/xlink">
    <!-- Generator: Sketch 39.1 (31720) - http://www.bohemiancoding.com/sketch -->
    <title>Group 8</title>
    <desc>Created with Sketch.</desc>
    <defs>
        <linearGradient x1="2.20085333%" y1="15.1627808%" x2="57.9837631%" y2="105.296788%" id="linearGradient-1">
            <stop stop-color="#000000" stop-opacity="0.06" offset="0%"></stop>
            <stop stop-color="#000000" stop-opacity="0.02" offset="100%"></stop>
        </linearGradient>
    </defs>
    <g id="Page-1" stroke="none" stroke-width="1" fill="none" fill-rule="evenodd" fill-opacity="0.8" opacity="0.340251866">
        <g id="天气_阴-copy-2" transform="translate(-370.000000, -314.000000)" fill="url(#linearGradient-1)">
            <g id="背景" transform="translate(347.000000, 294.000000)">
                <g id="4">
                    <path d="M62.5432926,1239.81441 L283.452291,1190.6716 C283.452291,1190.6716 646.865016,1116.47637 857.484396,883.790842 C1068.10378,651.105317 1270.71937,840.484975 1518.50405,724.310899 C1766.28873,608.136823 1854.18128,481.825397 1848.10558,221.879083 C1845.84965,125.36017 1475.92923,22.7465444 1132.06899,32.7531896 C788.208746,42.7598348 21.5014845,64.5307946 21.5014845,64.5307946 L62.5432926,1239.81441 Z" id="Path-14" transform="translate(934.949750, 635.944982) rotate(2.000000) translate(-934.949750, -635.944982) "></path>
                </g>
            </g>
        </g>
    </g>
</svg>